^C:\USERS\KIRSHAR\DOCUMENTS\VISUAL STUDIO 2013\PROJECTS\PASJANS\PASJANS\DEBUG\PASJANS.OBJ
/OUT:"C:\USERS\KIRSHAR\DOCUMENTS\VISUAL STUDIO 2013\PROJECTS\PASJANS\DEBUG\PASJANS.EXE" /INCREMENTAL /NOLOGO kernel32.lib user32.lib gdi32.lib winspool.lib comdlg32.lib advapi32.lib shell32.lib ole32.lib oleaut32.lib uuid.lib odbc32.lib odbccp32.lib /MANIFEST /MANIFESTUAC:"level='asInvoker' uiAccess='false'" /manifest:embed /DEBUG /PDB:"C:\USERS\KIRSHAR\DOCUMENTS\VISUAL STUDIO 2013\PROJECTS\PASJANS\DEBUG\PASJANS.PDB" /TLBID:1 /DYNAMICBASE /NXCOMPAT /IMPLIB:"C:\USERS\KIRSHAR\DOCUMENTS\VISUAL STUDIO 2013\PROJECTS\PASJANS\DEBUG\PASJANS.LIB" /MACHINE:X86 DEBUG\PASJANS.OBJ
^C:\USERS\STUDENT\DESKTOP\PASJANS\PASJANS\DEBUG\PASJANS.OBJ
/OUT:"C:\USERS\STUDENT\DESKTOP\PASJANS\DEBUG\PASJANS.EXE" /INCREMENTAL /NOLOGO kernel32.lib user32.lib gdi32.lib winspool.lib comdlg32.lib advapi32.lib shell32.lib ole32.lib oleaut32.lib uuid.lib odbc32.lib odbccp32.lib /MANIFEST /MANIFESTUAC:"level='asInvoker' uiAccess='false'" /manifest:embed /DEBUG /PDB:"C:\USERS\STUDENT\DESKTOP\PASJANS\DEBUG\PASJANS.PDB" /TLBID:1 /DYNAMICBASE /NXCOMPAT /IMPLIB:"C:\USERS\STUDENT\DESKTOP\PASJANS\DEBUG\PASJANS.LIB" /MACHINE:X86 DEBUG\PASJANS.OBJ
